Calculate Affected Demographics
…
#vars range from less than 10k to more than 200k

targetvars <- c("B19001_001", "B19001_002", "B19001_003", "B19001_004", "B19001_005", 
                "B19001_006", "B19001_007", "B19001_008", "B19001_009", "B19001_010", 
                "B19001_011", "B19001_012", "B19001_013", "B19001_014", "B19001_015", 
                "B19001_016", "B19001_017")

income<-get_acs(geography = "tract", variables=targetvars, state="NC", county="Mecklenburg", output="wide", year = 2010) %>% select(-ends_with("M"))

Getting data from the 2006-2010 5-year ACS

#the variables that end in E are the estimates while the ones that end in M tell the margin of error.
income

# A tibble: 233 × 19
   GEOID       NAME  B19001_001E B19001_002E B19001_003E B19001_004E B19001_005E
   <chr>       <chr>       <dbl>       <dbl>       <dbl>       <dbl>       <dbl>
 1 37119006214 Cens…        1419          12          25          25          99
 2 37119006215 Cens…        1437         153          29          20          67
 3 37119006302 Cens…        2191          42         140          78          52
 4 37119006303 Cens…        1968          67          14         107          76
 5 37119006304 Cens…        1805           0          13          50          37
 6 37119006403 Cens…        1463         180          79          66          83
 7 37119006404 Cens…        1604          21          36           0          66
 8 37119006405 Cens…        1216          57          55          29          40
 9 37119006406 Cens…        2274          81          34          14         129
10 37119006407 Cens…        1115          40           0          11           0
# ℹ 223 more rows
# ℹ 12 more variables: B19001_006E <dbl>, B19001_007E <dbl>, B19001_008E <dbl>,
#   B19001_009E <dbl>, B19001_010E <dbl>, B19001_011E <dbl>, B19001_012E <dbl>,
#   B19001_013E <dbl>, B19001_014E <dbl>, B19001_015E <dbl>, B19001_016E <dbl>,
#   B19001_017E <dbl>
…
